<svg width="23" height="23" viewBox="0 0 23 23" fill="none" xmlns="http://www.w3.org/2000/svg">
<path fill-rule="evenodd" clip-rule="evenodd" d="M11.3347 8.66069L18.9297 1.06569C19.6839 0.311438 20.9089 0.311438 21.6632 1.06569C22.4174 1.81994 22.4174 3.04494 21.6632 3.79919L14.0682 11.3942L21.6632 18.9892C22.4017 19.7259 22.4017 20.9247 21.6632 21.6632C20.9247 22.4017 19.7259 22.4017 18.9892 21.6632L11.3942 14.0682L3.79919 21.6632C3.04494 22.4174 1.81994 22.4174 1.06569 21.6632C0.311438 20.9089 0.311438 19.6839 1.06569 18.9297L8.66069 11.3347L1.06569 3.73969C0.327188 3.00294 0.327188 1.80419 1.06569 1.06569C1.80419 0.327188 3.00294 0.327188 3.73969 1.06569L11.3347 8.66069Z" fill="#fff"/>
</svg>
