<svg width="29" height="29" viewBox="0 0 29 29" fill="none" xmlns="http://www.w3.org/2000/svg">
<path d="M7.12103 10.8984C6.40306 10.8984 5.82103 11.4804 5.82103 12.1984C5.82103 12.9164 6.40306 13.4984 7.12103 13.4984V10.8984ZM17.3642 13.4984C18.0822 13.4984 18.6642 12.9164 18.6642 12.1984C18.6642 11.4804 18.0822 10.8984 17.3642 10.8984V13.4984ZM8.39594 14.6439C7.67797 14.6439 7.09594 15.2259 7.09594 15.9439C7.09594 16.6618 7.67797 17.2439 8.39594 17.2439V14.6439ZM16.0823 17.2439C16.8003 17.2439 17.3823 16.6618 17.3823 15.9439C17.3823 15.2259 16.8003 14.6439 16.0823 14.6439V17.2439ZM6.26171 4.74733C5.55358 4.86575 5.07552 5.53581 5.19394 6.24395C5.31236 6.95208 5.98242 7.43014 6.69055 7.31172L6.26171 4.74733ZM7.36453 5.95668L7.36185 7.25668H7.36453V5.95668ZM17.1368 5.95668L17.1467 4.65668H17.1368V5.95668ZM22.4956 11.3954L21.1956 11.386V11.3954H22.4956ZM22.4956 17.998H21.1956V17.9994L22.4956 17.998ZM21.1303 18.7464C21.0049 19.4533 21.4764 20.128 22.1833 20.2534C22.8902 20.3788 23.565 19.9074 23.6904 19.2005L21.1303 18.7464ZM6.70176 7.30976C7.4088 7.18496 7.88081 6.51063 7.75601 5.80359C7.63122 5.09654 6.95689 4.62454 6.24985 4.74933L6.70176 7.30976ZM2.00008 11.3937H3.3001L3.30006 11.3867L2.00008 11.3937ZM2.00008 26.4413H0.70008C0.70008 26.9028 0.944774 27.3297 1.343 27.563C1.74123 27.7962 2.23328 27.8009 2.63585 27.5752L2.00008 26.4413ZM7.35887 23.4367V22.1367C7.13622 22.1367 6.9173 22.1939 6.7231 22.3028L7.35887 23.4367ZM17.1312 23.4367V24.7367L17.1397 24.7367L17.1312 23.4367ZM23.68 19.2023C23.8034 18.495 23.3301 17.8216 22.6229 17.6981C21.9156 17.5747 21.2421 18.048 21.1187 18.7553L23.68 19.2023ZM5.19527 5.80729C5.07254 6.51469 5.54651 7.18764 6.25391 7.31037C6.96131 7.4331 7.63427 6.95913 7.757 6.25173L5.19527 5.80729ZM11.7496 1.56622V0.266202L11.7422 0.266245L11.7496 1.56622ZM21.522 1.56622L21.533 0.266223H21.522V1.56622ZM26.8754 7.00496L25.5754 6.99551V7.00496H26.8754ZM26.8754 13.6075H25.5754L25.5754 13.6162L26.8754 13.6075ZM22.1737 17.6985C21.4667 17.8233 20.9947 18.4976 21.1195 19.2047C21.2443 19.9117 21.9186 20.3837 22.6256 20.2589L22.1737 17.6985ZM7.12103 13.4984H17.3642V10.8984H7.12103V13.4984ZM8.39594 17.2439H16.0823V14.6439H8.39594V17.2439ZM6.69055 7.31172C6.91238 7.27462 7.13694 7.25621 7.36185 7.25668L7.36721 4.65668C6.99682 4.65592 6.62703 4.68624 6.26171 4.74733L6.69055 7.31172ZM7.36453 7.25668H17.1368V4.65668H7.36453V7.25668ZM17.127 7.25664C19.3907 7.27371 21.2121 9.12229 21.1957 11.386L23.7956 11.4049C23.8225 7.70557 20.8459 4.68462 17.1467 4.65672L17.127 7.25664ZM21.1956 11.3954V17.998H23.7956V11.3954H21.1956ZM21.1956 17.9994C21.1959 18.2498 21.1741 18.4998 21.1303 18.7464L23.6904 19.2005C23.7609 18.803 23.7961 18.4001 23.7956 17.9965L21.1956 17.9994ZM6.24985 4.74933C3.02652 5.31825 0.682482 8.12755 0.700098 11.4007L3.30006 11.3867C3.28926 9.38042 4.72603 7.65847 6.70176 7.30976L6.24985 4.74933ZM0.70008 11.3937V26.4413H3.30008V11.3937H0.70008ZM2.63585 27.5752L7.99463 24.5706L6.7231 22.3028L1.36431 25.3073L2.63585 27.5752ZM7.35887 24.7367H17.1312V22.1367H7.35887V24.7367ZM17.1397 24.7367C20.371 24.7155 23.1244 22.3855 23.68 19.2023L21.1187 18.7553C20.7793 20.7002 19.097 22.1238 17.1227 22.1367L17.1397 24.7367ZM7.757 6.25173C8.09498 4.30367 9.77997 2.87756 11.7571 2.8662L11.7422 0.266245C8.50624 0.28483 5.74843 2.61893 5.19527 5.80729L7.757 6.25173ZM11.7496 2.86622H21.522V0.266223H11.7496V2.86622ZM21.5109 2.86618C23.773 2.88547 25.5919 4.7334 25.5754 6.99551L28.1754 7.01442C28.2023 3.31768 25.2297 0.297801 21.533 0.266271L21.5109 2.86618ZM25.5754 7.00496V13.6075H28.1754V7.00496H25.5754ZM25.5754 13.6162C25.5889 15.6245 24.1515 17.3495 22.1737 17.6985L22.6256 20.2589C25.8523 19.6895 28.1973 16.8752 28.1754 13.5988L25.5754 13.6162Z" fill="#3BC2A5"/>
</svg>
