<svg width="30" height="33" viewBox="0 0 30 33" fill="none" xmlns="http://www.w3.org/2000/svg">
<path d="M1.88896 20.8054C1.8264 20.769 1.78075 20.7094 1.76196 20.6397C1.74318 20.5699 1.7528 20.4956 1.78872 20.4329L2.63172 18.9728C2.89148 18.526 3.31792 18.2003 3.8179 18.0669C4.31788 17.9336 4.85077 18.0033 5.30017 18.261L18.3684 25.806C18.8163 26.0663 19.1432 26.4929 19.2777 26.9926C19.4122 27.4923 19.3433 28.0244 19.0862 28.4728L18.2432 29.9329C18.2069 29.9954 18.1473 30.0409 18.0774 30.0595C18.0076 30.0781 17.9331 30.0683 17.8704 30.0322L1.88896 20.8054Z" fill="white"/>
<path d="M18.7315 16.9308L15.2064 23.0365L9.27891 19.6143L12.804 13.5086C12.3338 12.5824 12.1021 11.5541 12.1299 10.5168C12.1578 9.47953 12.4443 8.46609 12.9634 7.56829C14.6868 4.58337 18.5086 3.56469 21.4994 5.29143C24.4902 7.01818 25.5186 10.838 23.7956 13.8223C23.2778 14.7208 22.5435 15.4756 21.6592 16.0184C20.775 16.5612 19.7687 16.8748 18.7315 16.9308Z" fill="white"/>
<path d="M3.9368 22.9319L15.0046 29.3219C15.1353 29.3974 15.1802 29.5643 15.1049 29.6947L14.4067 30.9039C14.3314 31.0343 14.1645 31.0789 14.0337 31.0034L2.966 24.6134C2.83529 24.538 2.79037 24.3711 2.86566 24.2407L3.56382 23.0314C3.63911 22.901 3.8061 22.8565 3.9368 22.9319Z" fill="white"/>
</svg>
