<svg width="11" height="15" viewBox="0 0 11 15" fill="none" xmlns="http://www.w3.org/2000/svg">
<path d="M2 1.80005L8.76923 7.30005L2 12.8" stroke="#3EC1AB" stroke-width="2.6" stroke-linecap="round" stroke-linejoin="round"/>
</svg>
